%YAML 1.1
%TAG !u! tag:unity3d.com,2011:
--- !u!114 &11400000
MonoBehaviour:
  m_ObjectHideFlags: 0
  m_CorrespondingSourceObject: {fileID: 0}
  m_PrefabInstance: {fileID: 0}
  m_PrefabAsset: {fileID: 0}
  m_GameObject: {fileID: 0}
  m_Enabled: 1
  m_EditorHideFlags: 0
  m_Script: {fileID: 11500000, guid: eb5ed5c8f4913a34a873d434d41bf162, type: 3}
  m_Name: data_Remover
  m_EditorClassIdentifier: 
  spellName: Remover
  minDamage: 0
  maxDamage: 0
  manaCost: 250
  canMove: 1
  duration: 0
  removeSpell: Inmovilizar
  icon: {fileID: 21300000, guid: e308465cc799ed84db5192e39e1dadbb, type: 3}
  spellObjectPath: Spells/Remo
  className: Spell_RemoverInmo
